%!PS-Adobe-3.0 EPSF-3.0
%%Creator: MATLAB, The MathWorks, Inc. Version 8.0.0.783 (R2012b). Operating System: Darwin 12.2.1 Darwin Kernel Version 12.2.1: Thu Oct 18 16:32:48 PDT 2012; root:xnu-2050.20.9~2/RELEASE_X86_64 x86_64.
%%Title: /Users/mgharbi/Documents/6.869/proj/report/figs/energy.eps
%%CreationDate: 12/09/2012  16:49:40
%%DocumentNeededFonts: Helvetica
%%DocumentProcessColors: Cyan Magenta Yellow Black
%%LanguageLevel: 2
%%Pages: 1
%%BoundingBox:   -20   180   633   612
%%EndComments

%%BeginProlog
% MathWorks dictionary
/MathWorks 160 dict begin
% definition operators
/bdef {bind def} bind def
/ldef {load def} bind def
/xdef {exch def} bdef
/xstore {exch store} bdef
% operator abbreviations
/c  /clip ldef
/cc /concat ldef
/cp /closepath ldef
/gr /grestore ldef
/gs /gsave ldef
/mt /moveto ldef
/np /newpath ldef
/cm /currentmatrix ldef
/sm /setmatrix ldef
/rm /rmoveto ldef
/rl /rlineto ldef
/s {show newpath} bdef
/sc {setcmykcolor} bdef
/sr /setrgbcolor ldef
/sg /setgray ldef
/w /setlinewidth ldef
/j /setlinejoin ldef
/cap /setlinecap ldef
/rc {rectclip} bdef
/rf {rectfill} bdef
% page state control
/pgsv () def
/bpage {/pgsv save def} bdef
/epage {pgsv restore} bdef
/bplot /gsave ldef
/eplot {stroke grestore} bdef
% orientation switch
/portraitMode 0 def /landscapeMode 1 def /rotateMode 2 def
% coordinate system mappings
/dpi2point 0 def
% font control
/FontSize 0 def
/FMS {/FontSize xstore findfont [FontSize 0 0 FontSize neg 0 0]
  makefont setfont} bdef
/reencode {exch dup where {pop load} {pop StandardEncoding} ifelse
  exch dup 3 1 roll findfont dup length dict begin
  { 1 index /FID ne {def}{pop pop} ifelse } forall
  /Encoding exch def currentdict end definefont pop} bdef
/isroman {findfont /CharStrings get /Agrave known} bdef
/FMSR {3 1 roll 1 index dup isroman {reencode} {pop pop} ifelse
  exch FMS} bdef
/csm {1 dpi2point div -1 dpi2point div scale neg translate
 dup landscapeMode eq {pop -90 rotate}
  {rotateMode eq {90 rotate} if} ifelse} bdef
% line types: solid, dotted, dashed, dotdash
/SO { [] 0 setdash } bdef
/DO { [.5 dpi2point mul 4 dpi2point mul] 0 setdash } bdef
/DA { [6 dpi2point mul] 0 setdash } bdef
/DD { [.5 dpi2point mul 4 dpi2point mul 6 dpi2point mul 4
  dpi2point mul] 0 setdash } bdef
% macros for lines and objects
/L {lineto stroke} bdef
/MP {3 1 roll moveto 1 sub {rlineto} repeat} bdef
/AP {{rlineto} repeat} bdef
/PDlw -1 def
/W {/PDlw currentlinewidth def setlinewidth} def
/PP {closepath eofill} bdef
/DP {closepath stroke} bdef
/MR {4 -2 roll moveto dup  0 exch rlineto exch 0 rlineto
  neg 0 exch rlineto closepath} bdef
/FR {MR stroke} bdef
/PR {MR fill} bdef
/L1i {{currentfile picstr readhexstring pop} image} bdef
/tMatrix matrix def
/MakeOval {newpath tMatrix currentmatrix pop translate scale
0 0 1 0 360 arc tMatrix setmatrix} bdef
/FO {MakeOval stroke} bdef
/PO {MakeOval fill} bdef
/PD {currentlinewidth 2 div 0 360 arc fill
   PDlw -1 eq not {PDlw w /PDlw -1 def} if} def
/FA {newpath tMatrix currentmatrix pop translate scale
  0 0 1 5 -2 roll arc tMatrix setmatrix stroke} bdef
/PA {newpath tMatrix currentmatrix pop	translate 0 0 moveto scale
  0 0 1 5 -2 roll arc closepath tMatrix setmatrix fill} bdef
/FAn {newpath tMatrix currentmatrix pop translate scale
  0 0 1 5 -2 roll arcn tMatrix setmatrix stroke} bdef
/PAn {newpath tMatrix currentmatrix pop translate 0 0 moveto scale
  0 0 1 5 -2 roll arcn closepath tMatrix setmatrix fill} bdef
/vradius 0 def /hradius 0 def /lry 0 def
/lrx 0 def /uly 0 def /ulx 0 def /rad 0 def
/MRR {/vradius xdef /hradius xdef /lry xdef /lrx xdef /uly xdef
  /ulx xdef newpath tMatrix currentmatrix pop ulx hradius add uly
  vradius add translate hradius vradius scale 0 0 1 180 270 arc 
  tMatrix setmatrix lrx hradius sub uly vradius add translate
  hradius vradius scale 0 0 1 270 360 arc tMatrix setmatrix
  lrx hradius sub lry vradius sub translate hradius vradius scale
  0 0 1 0 90 arc tMatrix setmatrix ulx hradius add lry vradius sub
  translate hradius vradius scale 0 0 1 90 180 arc tMatrix setmatrix
  closepath} bdef
/FRR {MRR stroke } bdef
/PRR {MRR fill } bdef
/MlrRR {/lry xdef /lrx xdef /uly xdef /ulx xdef /rad lry uly sub 2 div def
  newpath tMatrix currentmatrix pop ulx rad add uly rad add translate
  rad rad scale 0 0 1 90 270 arc tMatrix setmatrix lrx rad sub lry rad
  sub translate rad rad scale 0 0 1 270 90 arc tMatrix setmatrix
  closepath} bdef
/FlrRR {MlrRR stroke } bdef
/PlrRR {MlrRR fill } bdef
/MtbRR {/lry xdef /lrx xdef /uly xdef /ulx xdef /rad lrx ulx sub 2 div def
  newpath tMatrix currentmatrix pop ulx rad add uly rad add translate
  rad rad scale 0 0 1 180 360 arc tMatrix setmatrix lrx rad sub lry rad
  sub translate rad rad scale 0 0 1 0 180 arc tMatrix setmatrix
  closepath} bdef
/FtbRR {MtbRR stroke } bdef
/PtbRR {MtbRR fill } bdef
/stri 6 array def /dtri 6 array def
/smat 6 array def /dmat 6 array def
/tmat1 6 array def /tmat2 6 array def /dif 3 array def
/asub {/ind2 exch def /ind1 exch def dup dup
  ind1 get exch ind2 get sub exch } bdef
/tri_to_matrix {
  2 0 asub 3 1 asub 4 0 asub 5 1 asub
  dup 0 get exch 1 get 7 -1 roll astore } bdef
/compute_transform {
  dmat dtri tri_to_matrix tmat1 invertmatrix 
  smat stri tri_to_matrix tmat2 concatmatrix } bdef
/ds {stri astore pop} bdef
/dt {dtri astore pop} bdef
/db {2 copy /cols xdef /rows xdef mul dup 3 mul string
  currentfile 
  3 index 0 eq {/ASCIIHexDecode filter}
  {/ASCII85Decode filter 3 index 2 eq {/RunLengthDecode filter} if }
  ifelse exch readstring pop
  dup 0 3 index getinterval /rbmap xdef
  dup 2 index dup getinterval /gbmap xdef
  1 index dup 2 mul exch getinterval /bbmap xdef pop pop}bdef
/it {gs np dtri aload pop moveto lineto lineto cp c
  cols rows 8 compute_transform 
  rbmap gbmap bbmap true 3 colorimage gr}bdef
/il {newpath moveto lineto stroke}bdef
currentdict end def
%%EndProlog

%%BeginSetup
MathWorks begin

0 cap

end
%%EndSetup

%%Page: 1 1
%%BeginPageSetup
%%PageBoundingBox:   -20   180   633   612
MathWorks begin
bpage
%%EndPageSetup

%%BeginObject: obj1
bplot

/dpi2point 12 def
portraitMode -0240 7344 csm

    0     0  7846  5177 rc
85 dict begin %Colortable dictionary
/c0 { 0.000000 0.000000 0.000000 sr} bdef
/c1 { 1.000000 1.000000 1.000000 sr} bdef
/c2 { 0.900000 0.000000 0.000000 sr} bdef
/c3 { 0.000000 0.820000 0.000000 sr} bdef
/c4 { 0.000000 0.000000 0.800000 sr} bdef
/c5 { 0.910000 0.820000 0.320000 sr} bdef
/c6 { 1.000000 0.260000 0.820000 sr} bdef
/c7 { 0.000000 0.820000 0.820000 sr} bdef
c0
1 j
1 sg
   0    0 7847 5178 rf
6 w
0 4220 6081 0 0 -4220 1020 4608 4 MP
PP
-6081 0 0 4220 6081 0 0 -4220 1020 4608 5 MP stroke
4 w
DO
SO
6 w
0 sg
1020 4608 mt 7101 4608 L
1020  388 mt 7101  388 L
1020 4608 mt 1020  388 L
7101 4608 mt 7101  388 L
1020 4608 mt 7101 4608 L
1020 4608 mt 1020  388 L
1020 4608 mt 1020 4547 L
1020  388 mt 1020  448 L
%%IncludeResource: font Helvetica
/Helvetica /ISOLatin1Encoding 120 FMSR

 987 4753 mt 
(0) s
2033 4608 mt 2033 4547 L
2033  388 mt 2033  448 L
1967 4753 mt 
(20) s
3047 4608 mt 3047 4547 L
3047  388 mt 3047  448 L
2981 4753 mt 
(40) s
4060 4608 mt 4060 4547 L
4060  388 mt 4060  448 L
3994 4753 mt 
(60) s
5074 4608 mt 5074 4547 L
5074  388 mt 5074  448 L
5008 4753 mt 
(80) s
6087 4608 mt 6087 4547 L
6087  388 mt 6087  448 L
5987 4753 mt 
(100) s
7101 4608 mt 7101 4547 L
7101  388 mt 7101  448 L
7001 4753 mt 
(120) s
1020 4608 mt 1080 4608 L
7101 4608 mt 7040 4608 L
 919 4652 mt 
(0) s
1020 4080 mt 1080 4080 L
7101 4080 mt 7040 4080 L
 852 4124 mt 
(50) s
1020 3553 mt 1080 3553 L
7101 3553 mt 7040 3553 L
 785 3597 mt 
(100) s
1020 3025 mt 1080 3025 L
7101 3025 mt 7040 3025 L
 785 3069 mt 
(150) s
1020 2498 mt 1080 2498 L
7101 2498 mt 7040 2498 L
 785 2542 mt 
(200) s
1020 1970 mt 1080 1970 L
7101 1970 mt 7040 1970 L
 785 2014 mt 
(250) s
1020 1443 mt 1080 1443 L
7101 1443 mt 7040 1443 L
 785 1487 mt 
(300) s
1020  915 mt 1080  915 L
7101  915 mt 7040  915 L
 785  959 mt 
(350) s
1020  388 mt 1080  388 L
7101  388 mt 7040  388 L
 785  432 mt 
(400) s
1020 4608 mt 7101 4608 L
1020  388 mt 7101  388 L
1020 4608 mt 1020  388 L
7101 4608 mt 7101  388 L
gs 1020 388 6082 4221 rc
24 w
/c8 { 1.000000 0.000000 0.000000 sr} bdef
c8
51 0 51 0 50 0 51 0 51 0 50 0 51 0 51 0 
50 0 51 0 51 0 50 0 51 0 51 0 50 0 51 0 
51 0 50 0 51 0 51 0 50 0 51 0 51 0 51 0 
50 0 51 0 51 0 50 0 51 0 51 0 50 0 51 0 
51 0 50 0 51 0 51 0 50 0 51 -381 51 0 50 0 
51 0 51 -25 50 -254 51 -302 51 -611 50 -613 51 -404 51 -328 
50 -150 51 -153 51 -34 50 -22 51 -13 51 0 50 -2 51 0 
51 -2 50 0 51 0 51 0 50 0 51 0 51 0 51 0 
50 0 51 0 51 0 50 0 51 0 51 0 50 0 51 0 
51 0 50 0 51 0 51 0 50 0 51 0 51 0 50 0 
51 0 51 0 50 0 51 0 51 0 50 -1 51 1 51 -1 
50 3 51 -1 51 2 50 6 51 15 51 9 50 12 51 21 
51 35 50 124 51 222 51 1913 1070 1798 101 MP stroke
gr

24 w
c8
0 sg
%%IncludeResource: font Helvetica
/Helvetica /ISOLatin1Encoding 168 FMSR

3672 4931 mt 
(#iterations) s
 693 2938 mt  -90 rotate
(total energy) s
90 rotate
3259  283 mt 
(Energy vs. #iterations) s
6 w

end %%Color Dict

eplot
%%EndObject

epage
end

showpage

%%Trailer
%%EOF
