\relax 
\providecommand\HyperFirstAtBeginDocument{\AtBeginDocument}
\HyperFirstAtBeginDocument{\ifx\hyper@anchor\@undefined
\global\let\oldcontentsline\contentsline
\gdef\contentsline#1#2#3#4{\oldcontentsline{#1}{#2}{#3}}
\global\let\oldnewlabel\newlabel
\gdef\newlabel#1#2{\newlabelxx{#1}#2}
\gdef\newlabelxx#1#2#3#4#5#6{\oldnewlabel{#1}{{#2}{#3}}}
\AtEndDocument{\ifx\hyper@anchor\@undefined
\let\contentsline\oldcontentsline
\let\newlabel\oldnewlabel
\fi}
\fi}
\global\let\hyper@last\relax 
\gdef\HyperFirstAtBeginDocument#1{#1}
\providecommand\HyField@AuxAddToFields[1]{}
\@writefile{toc}{\contentsline {section}{\numberline {1}Build a digital camera obscure}{1}{section.1}}
\@writefile{lof}{\contentsline {figure}{\numberline {1}{\ignorespaces Camera setup.}}{1}{figure.1}}
\newlabel{fig:setup}{{1}{1}{Camera setup}{figure.1}{}}
\@writefile{toc}{\contentsline {section}{\numberline {2}Anaglyph camera obscura}{1}{section.2}}
\@writefile{toc}{\contentsline {section}{\numberline {3}Calibration and Image Correction}{1}{section.3}}
\@writefile{lof}{\contentsline {figure}{\numberline {2}{\ignorespaces Camera obscura.}}{2}{figure.2}}
\newlabel{fig:cobs}{{2}{2}{Camera obscura}{figure.2}{}}
\@writefile{lof}{\contentsline {figure}{\numberline {3}{\ignorespaces }}{3}{figure.3}}
\newlabel{fig:pics}{{3}{3}{\relax }{figure.3}{}}
\@writefile{lof}{\contentsline {subfigure}{\numberline{(a)}{\ignorespaces {\em Tim the Beaver.}}}{3}{figure.3}}
\@writefile{lof}{\contentsline {subfigure}{\numberline{(b)}{\ignorespaces {\em Becky}}}{3}{figure.3}}
\@writefile{lof}{\contentsline {subfigure}{\numberline{(c)}{\ignorespaces {\em Cutlery Basket. This images was taken with a smaller aperture and is much sharper.}}}{3}{figure.3}}
\@writefile{lof}{\contentsline {subfigure}{\numberline{(d)}{\ignorespaces {\em Myself}}}{3}{figure.3}}
\@writefile{toc}{\contentsline {section}{\numberline {4}Anaglyph camera obscura: a device to measure distances to objects}{3}{section.4}}
\@writefile{lof}{\contentsline {figure}{\numberline {4}{\ignorespaces Anaglyph Camera Obscura}}{4}{figure.4}}
\newlabel{fig:acobs}{{4}{4}{Anaglyph Camera Obscura\relax }{figure.4}{}}
\@writefile{lof}{\contentsline {figure}{\numberline {5}{\ignorespaces }}{4}{figure.5}}
\newlabel{fig:anaglyph}{{5}{4}{\relax }{figure.5}{}}
\@writefile{lof}{\contentsline {subfigure}{\numberline{(a)}{\ignorespaces {\em Bowling Pin.}}}{4}{figure.5}}
\@writefile{lof}{\contentsline {subfigure}{\numberline{(b)}{\ignorespaces {\em Cutlery Basket}}}{4}{figure.5}}
\@writefile{lof}{\contentsline {figure}{\numberline {6}{\ignorespaces }}{5}{figure.6}}
\newlabel{fig:calibration}{{6}{5}{\relax }{figure.6}{}}
\@writefile{lof}{\contentsline {subfigure}{\numberline{(a)}{\ignorespaces {\em Calibration Image}}}{5}{figure.6}}
\@writefile{lof}{\contentsline {subfigure}{\numberline{(b)}{\ignorespaces {\em Calibrated Image}}}{5}{figure.6}}
\@writefile{lof}{\contentsline {figure}{\numberline {7}{\ignorespaces }}{6}{figure.7}}
\newlabel{fig:anaglyph_calibration}{{7}{6}{\relax }{figure.7}{}}
\@writefile{lof}{\contentsline {subfigure}{\numberline{(a)}{\ignorespaces {\em Calibration image: $z$ = 18 inches}}}{6}{figure.7}}
\@writefile{lof}{\contentsline {subfigure}{\numberline{(b)}{\ignorespaces {\em Calibration image: $z$ = 40 inches}}}{6}{figure.7}}
\@writefile{lof}{\contentsline {subfigure}{\numberline{(c)}{\ignorespaces {\em Calibration setup}}}{6}{figure.7}}
\@writefile{lof}{\contentsline {subfigure}{\numberline{(d)}{\ignorespaces {\em Linear fit between $1/z$ and $d$}}}{6}{figure.7}}
